[gd_scene load_steps=2 format=3 uid="uid://4qoo6y8acb8y"]

[ext_resource type="Script" path="res://player_cam.gd" id="1_55vfn"]

[node name="PlayerCam" type="Node3D"]
script = ExtResource("1_55vfn")

[node name="CamBase" type="Node3D" parent="."]
transform = Transform3D(1, 0, 0, 0, 0.258819, 0.965926, 0, -0.965926, 0.258819, 0, 10, 0)

[node name="Camera" type="Camera3D" parent="CamBase"]
transform = Transform3D(1, 0, 0, 0, 1, -2.98023e-07, 0, 2.98023e-07, 1, 0, 0, 30)
current = true
fov = 50.0
size = 20.0
